{
    "base_dir":"log/ICBBT17_21-03/",
    "data_dir":"data/ProstateX/train/",
    "optimization_settings":{
        "ngen":1000,
        "indpb":0.05,
        "sep":";",
        "n_max":500
    },
    "knn_n":[1,3,5],
    "scaling_levels":255,
    "modalities": {"t2-tra":{}, "t2-sag":{}, "t2-cor":{}, "dwi-adc":{}, "ktrans":{}},
    "margins": {"-1":{}, "2.5":{}, "5":{}, "7.5":{}, "10":{}, "15":{}, "20":{}, "25":{}, "30":{}, "35":{}, "40":{}, "45":{}},
    "normalizations": {
        "norm-no":"no",
        "norm-stat-1":"stat_1",
        "norm-stat-2":"stat_2"
    },
    "baseline_features": {
        "in_zone_%s":  "in_zone",
        "clinsig":  "clinsig"
    },
    "meta_features": {
        "in_zone_%s":  "in_zone",
        "age":      "age",
        "weight":   "weight",
        "size":     "size",
        "clinsig":  "clinsig"
    },
    "test_features": {
        "intensity_single_voxel_modality=%s":     "intensity",
        "intensity_region_2d_margin=%d_modality=%s_feature=%d":  {"func": "statistics", "settings": {"shape":2}},
        "intensity_region_3d_margin=%s_modality=%s_feature=%s":  {"func": "statistics", "settings": {"shape":3}},
        "haralick_2d_mean_margin=%s_modality=%s_feature=%s":     {"func": "haralick", "settings": {"shape":2,"reduction": "numpy.mean"}},
        "haralick_2d_skew_margin=%s_modality=%s_feature=%s":     {"func": "haralick", "settings": {"shape":3,"reduction": "scipy.stats.skew"}},
        "haralick_2d_kurtosis_margin=%s_modality=%s_feature=%s": {"func": "haralick", "settings": {"shape":2,"reduction": "scipy.stats.kurtosis"}},
        "haralick_3d_mean_margin=%s_modality=%s_feature=%s":     {"func": "haralick", "settings": {"shape":3,"reduction": "numpy.mean"}},
        "haralick_3d_skew_margin=%s_modality=%s_feature=%s":     {"func": "haralick", "settings": {"shape":3,"reduction": "scipy.stats.skew"}},
        "haralick_3d_kurtosis_margin=%s_modality=%s_feature=%s": {"func": "haralick", "settings": {"shape":3,"reduction": "scipy.stats.kurtosis"}}
    },
    "models_dynamic_n":5,
    "models_dynamic":{
        "ALL-MAIN":{
             "filter":{
                "Modality":["t2","dwi","ktrans"]
            },
            "groupby":["Modality"]
        },
        "T2-ONLY":{
            "filter":{
                "Modality":["t2"]
            },
            "groupby":["Modality","SubModality"]
        },
        "T2-DWI":{
            "filter":{
                "Modality":["t2","dwi"]
            },
            "groupby":["Modality"]
        },
        "T2-KTRANS":{
             "filter":{
                "Modality":["t2","ktrans"]
            },
            "groupby":["Modality"]
        },
        "KTRANS-DWI":{
            "filter":{
                "Modality":["dwi","ktrans"]
            },
            "groupby":["Modality"]
        }
    },
    "models_merge_n":5,
    "models_merge":{
        "T2-DWI-KTRANS":["dynamic_model-T2-ONLY","dynamic_model-KTRANS-DWI"],
        "T2-KTRANS":["dynamic_model-T2-ONLY","dynamic_model-T2-KTRANS"],
        "T2-DWI":["dynamic_model-T2-ONLY","dynamic_model-T2-DWI"]
    },
    "models":{
        "ADC-T2-COR-SAG":{
              "features":{
                    "in_zone_%s":  "in_zone",
                    "intensity_region_3d_margin=%d_modality=%s_feature=%d":  {"func": "statistics", "settings": {"shape":3,"modalities": {"t2-cor":{"normalization":"no"}}}},
                    "haralick_2d_skew_margin=%d_modality=%s_feature=%d":     {"func": "haralick", "settings": {"shape":2,"reduction": "scipy.stats.skew","modalities": {"t2-sag":{"normalization":"stat_2"}}}},
                    "haralick_3d_skew_margin=%d_modality=%s_feature=%d":     {"func": "haralick", "settings": {"shape":3,"reduction": "scipy.stats.skew","modalities": {"dwi-adc":{"normalization":"no"}}}},
                    "clinsig":  "clinsig"
            }
        }
    }
}