ProxID;fid
ProstateX-0000;1
ProstateX-0001;1
ProstateX-0002;1
ProstateX-0002;2
ProstateX-0003;1
ProstateX-0003;2
ProstateX-0004;1
ProstateX-0005;0
ProstateX-0005;1
ProstateX-0006;1
ProstateX-0006;2
ProstateX-0007;1
ProstateX-0008;1
ProstateX-0009;1
ProstateX-0010;1
ProstateX-0011;1
ProstateX-0012;1
ProstateX-0012;2
ProstateX-0013;1
ProstateX-0014;1
ProstateX-0015;1
ProstateX-0016;1
ProstateX-0017;1
ProstateX-0018;1
ProstateX-0019;1
ProstateX-0020;1
ProstateX-0021;2
ProstateX-0021;4
ProstateX-0022;1
ProstateX-0023;1
ProstateX-0023;2
ProstateX-0024;1
ProstateX-0025;2
ProstateX-0025;3
ProstateX-0025;4
ProstateX-0026;1
ProstateX-0027;1
ProstateX-0028;1
ProstateX-0028;2
ProstateX-0029;1
ProstateX-0030;1
ProstateX-0031;1
ProstateX-0031;2
ProstateX-0032;1
ProstateX-0033;1
ProstateX-0033;3
ProstateX-0034;1
ProstateX-0035;1
ProstateX-0035;2
ProstateX-0036;1
ProstateX-0037;1
ProstateX-0037;2
ProstateX-0038;1
ProstateX-0038;2
ProstateX-0038;3
ProstateX-0039;1
ProstateX-0040;1
ProstateX-0040;2
ProstateX-0040;3
ProstateX-0041;1
ProstateX-0042;1
ProstateX-0043;1
ProstateX-0044;1
ProstateX-0045;1
ProstateX-0046;1
ProstateX-0046;2
ProstateX-0047;1
ProstateX-0048;1
ProstateX-0049;1
ProstateX-0050;1
ProstateX-0051;1
ProstateX-0052;1
ProstateX-0053;4
ProstateX-0054;1
ProstateX-0054;2
ProstateX-0055;1
ProstateX-0056;1
ProstateX-0057;1
ProstateX-0057;2
ProstateX-0058;1
ProstateX-0059;1
ProstateX-0060;1
ProstateX-0061;1
ProstateX-0062;1
ProstateX-0063;1
ProstateX-0064;1
ProstateX-0065;1
ProstateX-0065;2
ProstateX-0066;1
ProstateX-0067;1
ProstateX-0067;2
ProstateX-0067;3
ProstateX-0068;1
ProstateX-0068;2
ProstateX-0068;3
ProstateX-0069;1
ProstateX-0070;1
ProstateX-0070;2
ProstateX-0071;1
ProstateX-0072;1
ProstateX-0073;1
ProstateX-0074;1
ProstateX-0075;1
ProstateX-0076;1
ProstateX-0077;1
ProstateX-0078;1
ProstateX-0079;1
ProstateX-0080;1
ProstateX-0081;1
ProstateX-0082;1
ProstateX-0083;1
ProstateX-0083;2
ProstateX-0084;1
ProstateX-0084;2
ProstateX-0085;1
ProstateX-0085;2
ProstateX-0085;3
ProstateX-0085;4
ProstateX-0086;1
ProstateX-0086;2
ProstateX-0087;1
ProstateX-0087;2
ProstateX-0088;1
ProstateX-0088;2
ProstateX-0089;1
ProstateX-0090;1
ProstateX-0091;1
ProstateX-0092;1
ProstateX-0093;1
ProstateX-0093;2
ProstateX-0093;3
ProstateX-0094;1
ProstateX-0095;1
ProstateX-0095;2
ProstateX-0096;1
ProstateX-0097;1
ProstateX-0098;1
ProstateX-0099;1
ProstateX-0099;2
ProstateX-0100;1
ProstateX-0100;2
ProstateX-0100;3
ProstateX-0101;1
ProstateX-0101;2
ProstateX-0102;1
ProstateX-0103;1
ProstateX-0103;2
ProstateX-0104;1
ProstateX-0104;2
ProstateX-0105;1
ProstateX-0105;2
ProstateX-0105;3
ProstateX-0106;1
ProstateX-0106;2
ProstateX-0107;1
ProstateX-0108;1
ProstateX-0108;2
ProstateX-0109;1
ProstateX-0109;2
ProstateX-0110;1
ProstateX-0110;2
ProstateX-0111;1
ProstateX-0112;1
ProstateX-0113;1
ProstateX-0114;1
ProstateX-0114;2
ProstateX-0115;1
ProstateX-0116;1
ProstateX-0117;1
ProstateX-0117;3
ProstateX-0118;1
ProstateX-0118;2
ProstateX-0119;1
ProstateX-0120;1
ProstateX-0120;2
ProstateX-0121;1
ProstateX-0121;2
ProstateX-0122;1
ProstateX-0122;2
ProstateX-0123;1
ProstateX-0124;1
ProstateX-0125;1
ProstateX-0126;1
ProstateX-0126;2
ProstateX-0127;1
ProstateX-0128;1
ProstateX-0128;2
ProstateX-0128;3
ProstateX-0129;1
ProstateX-0130;1
ProstateX-0130;2
ProstateX-0130;3
ProstateX-0131;1
ProstateX-0131;2
ProstateX-0132;1
ProstateX-0133;1
ProstateX-0134;1
ProstateX-0134;2
ProstateX-0135;1
ProstateX-0135;2
ProstateX-0136;1
ProstateX-0136;2
ProstateX-0137;1
ProstateX-0137;2
ProstateX-0137;3
ProstateX-0138;1
ProstateX-0138;2
ProstateX-0138;3
ProstateX-0139;1
ProstateX-0139;2
ProstateX-0139;3
ProstateX-0140;1
ProstateX-0140;2
ProstateX-0141;1
ProstateX-0141;2
ProstateX-0141;3
ProstateX-0142;1
ProstateX-0142;2
ProstateX-0142;3
ProstateX-0143;1
ProstateX-0144;1
ProstateX-0144;2
ProstateX-0144;3
ProstateX-0145;1
ProstateX-0146;1
ProstateX-0147;1
ProstateX-0147;2
ProstateX-0148;1
ProstateX-0148;2
ProstateX-0149;1
ProstateX-0149;2
ProstateX-0150;2
ProstateX-0150;3
ProstateX-0151;1
ProstateX-0151;2
ProstateX-0152;1
ProstateX-0153;1
ProstateX-0153;2
ProstateX-0153;3
ProstateX-0154;1
ProstateX-0155;1
ProstateX-0156;1
ProstateX-0157;1
ProstateX-0157;3
ProstateX-0158;1
ProstateX-0159;1
ProstateX-0159;2
ProstateX-0160;1
ProstateX-0160;2
ProstateX-0161;1
ProstateX-0161;2
ProstateX-0161;3
ProstateX-0162;1
ProstateX-0163;1
ProstateX-0163;2
ProstateX-0163;3
ProstateX-0164;1
ProstateX-0165;1
ProstateX-0165;2
ProstateX-0166;1
ProstateX-0167;1
ProstateX-0168;1
ProstateX-0169;1
ProstateX-0170;1
ProstateX-0170;2
ProstateX-0171;1
ProstateX-0171;2
ProstateX-0171;3
ProstateX-0172;1
ProstateX-0172;2
ProstateX-0172;4
ProstateX-0173;1
ProstateX-0173;2
ProstateX-0174;1
ProstateX-0175;1
ProstateX-0175;2
ProstateX-0176;1
ProstateX-0176;2
ProstateX-0177;1
ProstateX-0177;2
ProstateX-0177;4
ProstateX-0178;1
ProstateX-0179;1
ProstateX-0179;2
ProstateX-0180;1
ProstateX-0181;1
ProstateX-0182;1
ProstateX-0183;1
ProstateX-0184;1
ProstateX-0184;2
ProstateX-0185;1
ProstateX-0186;1
ProstateX-0186;2
ProstateX-0187;1
ProstateX-0187;2
ProstateX-0187;4
ProstateX-0188;1
ProstateX-0189;1
ProstateX-0189;2
ProstateX-0189;3
ProstateX-0190;1
ProstateX-0190;2
ProstateX-0191;1
ProstateX-0192;1
ProstateX-0192;2
ProstateX-0193;1
ProstateX-0193;2
ProstateX-0193;3
ProstateX-0193;4
ProstateX-0194;1
ProstateX-0195;1
ProstateX-0196;1
ProstateX-0196;2
ProstateX-0196;3
ProstateX-0197;1
ProstateX-0198;1
ProstateX-0199;1
ProstateX-0199;2
ProstateX-0200;1
ProstateX-0200;2
ProstateX-0201;1
ProstateX-0202;1
ProstateX-0202;2
ProstateX-0203;1
ProstateX-0203;2
